<?xml version="1.0" encoding="UTF-8" standalone="no"?>
<!-- Created with Inkscape (http://www.inkscape.org/) -->

<svg
   xmlns:dc="http://purl.org/dc/elements/1.1/"
   xmlns:cc="http://creativecommons.org/ns#"
   xmlns:rdf="http://www.w3.org/1999/02/22-rdf-syntax-ns#"
   xmlns:svg="http://www.w3.org/2000/svg"
   xmlns="http://www.w3.org/2000/svg"
   xmlns:xlink="http://www.w3.org/1999/xlink"
   xmlns:sodipodi="http://sodipodi.sourceforge.net/DTD/sodipodi-0.dtd"
   xmlns:inkscape="http://www.inkscape.org/namespaces/inkscape"
   width="48"
   height="48"
   id="svg14"
   sodipodi:version="0.32"
   inkscape:version="0.48.1 r9760"
   sodipodi:docname="ibus-grc.svg"
   version="1.0"
   inkscape:output_extension="org.inkscape.output.svg.inkscape">
  <defs
     id="defs3">
    <linearGradient
       id="linearGradient3186">
      <stop
         id="stop3188"
         offset="0"
         style="stop-color:#ff0000;stop-opacity:1;" />
      <stop
         id="stop3190"
         offset="1"
         style="stop-color:#fb4b12;stop-opacity:0.77840906;" />
    </linearGradient>
    <linearGradient
       id="linearGradient3174">
      <stop
         style="stop-color:#000000;stop-opacity:1;"
         offset="0"
         id="stop3176" />
      <stop
         style="stop-color:#000000;stop-opacity:0;"
         offset="1"
         id="stop3178" />
    </linearGradient>
    <inkscape:perspective
       sodipodi:type="inkscape:persp3d"
       inkscape:vp_x="0 : 24 : 1"
       inkscape:vp_y="0 : 1000 : 0"
       inkscape:vp_z="48 : 24 : 1"
       inkscape:persp3d-origin="24 : 16 : 1"
       id="perspective23" />
    <linearGradient
       id="linearGradient4234">
      <stop
         id="stop4236"
         offset="0"
         style="stop-color:#c1e3ff;stop-opacity:1;" />
      <stop
         id="stop4238"
         offset="1"
         style="stop-color:#56ace5;stop-opacity:1;" />
    </linearGradient>
    <linearGradient
       inkscape:collect="always"
       xlink:href="#linearGradient3186"
       id="linearGradient3184"
       x1="20.957657"
       y1="35.310341"
       x2="36.531876"
       y2="35.310341"
       gradientUnits="userSpaceOnUse" />
  </defs>
  <sodipodi:namedview
     id="base"
     pagecolor="#ffffff"
     bordercolor="#666666"
     borderopacity="1.0"
     inkscape:pageopacity="0.0"
     inkscape:pageshadow="2"
     inkscape:zoom="4"
     inkscape:cx="-0.8750001"
     inkscape:cy="24"
     inkscape:document-units="px"
     inkscape:current-layer="layer1"
     inkscape:window-width="1024"
     inkscape:window-height="693"
     inkscape:window-x="0"
     inkscape:window-y="26"
     inkscape:showpageshadow="false"
     width="48px"
     height="48px"
     showgrid="false"
     showborder="true"
     showguides="true"
     inkscape:guide-bbox="true"
     inkscape:window-maximized="0" />
  <metadata
     id="metadata4">
    <rdf:RDF>
      <cc:Work
         rdf:about="">
        <dc:format>image/svg+xml</dc:format>
        <dc:type
           rdf:resource="http://purl.org/dc/dcmitype/StillImage" />
        <dc:title></dc:title>
      </cc:Work>
    </rdf:RDF>
  </metadata>
  <g
     inkscape:label="Layer 1"
     inkscape:groupmode="layer"
     id="layer1">
    <g
       id="g3801"
       transform="translate(-2.9526562,-1.6123047)">
      <g
         style="font-size:18px;font-style:normal;font-variant:normal;font-weight:normal;font-stretch:normal;line-height:125%;letter-spacing:0px;word-spacing:0px;fill:#000000;fill-opacity:1;stroke:none;font-family:Palatino Linotype;-inkscape-font-specification:Palatino Linotype"
         id="text3008">
        <path
           d="m 40.132812,33.972656 -0.273437,0.859375 c -2.018252,0.9375 -3.502625,1.40625 -4.453125,1.40625 -0.494811,0 -0.917988,-0.07813 -1.269531,-0.234375 -0.33856,-0.15625 -0.598977,-0.345052 -0.78125,-0.566406 -0.169289,-0.234374 -0.306008,-0.514322 -0.410157,-0.839844 -0.104184,-0.325519 -0.253923,-1.048175 -0.449218,-2.167969 l -0.644532,-3.632812 c -1.927098,2.708338 -3.730481,4.635419 -5.410156,5.78125 -1.666676,1.132813 -3.385424,1.699218 -5.15625,1.699219 -1.588546,-10e-7 -2.773441,-0.390625 -3.554687,-1.171875 -0.768231,-0.79427 -1.152345,-2.089841 -1.152344,-3.886719 -1e-6,-2.695305 0.638019,-5.227855 1.914062,-7.597656 1.276038,-2.369777 2.74088,-4.062484 4.394532,-5.078125 1.666657,-1.015607 3.470041,-1.523419 5.410156,-1.523438 1.614569,1.9e-5 2.845036,0.397154 3.691406,1.191406 0.859358,0.794288 1.497378,2.291682 1.914063,4.492188 0.716126,-1.562485 1.367167,-3.235661 1.953125,-5.019531 l 0.527343,-0.273438 1.40625,1.074219 0.117188,0.566406 c -1.445334,2.617202 -2.610697,4.537773 -3.496094,5.761719 0.234356,1.497405 0.527324,3.053393 0.878906,4.667969 0.351543,1.614588 0.63149,2.688805 0.839844,3.222656 0.208312,0.520836 0.475239,0.91146 0.800781,1.171875 0.325499,0.247397 0.761697,0.371095 1.308594,0.371094 0.468727,10e-7 1.00258,-0.130207 1.601563,-0.390625 l 0.292968,0.117187 M 31.519531,27.039062 C 30.894516,23.875012 30.256495,21.62241 29.605469,20.28125 28.954413,18.9271 27.932279,18.250017 26.539062,18.25 c -1.88803,1.7e-5 -3.450528,1.126318 -4.6875,3.378906 -1.236984,2.252616 -1.855473,4.876312 -1.855468,7.871094 -5e-6,1.796879 0.208328,3.111982 0.625,3.945312 0.429681,0.833335 1.087233,1.250002 1.972656,1.25 1.471345,2e-6 3.027333,-0.781248 4.667969,-2.34375 1.640611,-1.575515 3.059881,-3.346347 4.257812,-5.3125 m -4.160156,17.910157 0.703125,-8.007813 0.585937,0 0.703125,8.007813 -0.371093,0.410156 -1.25,0 -0.371094,-0.410156 M 23.746094,9.6171875 23.277344,9.03125 c 1.028637,-1.0546597 1.861969,-1.7122112 2.5,-1.9726563 0.638009,-0.2603877 1.236967,-0.3905959 1.796875,-0.390625 0.35155,2.91e-5 0.67707,0.032581 0.976562,0.097656 0.299466,0.065133 0.781236,0.2278933 1.445313,0.4882812 1.041651,0.3906532 1.816389,0.5859655 2.324218,0.5859375 0.351546,2.8e-5 0.683576,-0.078097 0.996094,-0.234375 0.325503,-0.1692425 0.768211,-0.5077838 1.328125,-1.015625 L 35.015625,7.078125 C 34.338523,7.781278 33.700502,8.3411732 33.101562,8.7578125 32.515608,9.1614849 31.877588,9.3633076 31.1875,9.3632813 30.822901,9.3633076 30.49087,9.3242452 30.191406,9.2460938 29.891912,9.1549745 29.488267,8.9922143 28.980469,8.7578125 28.055977,8.3541941 27.30728,8.1523713 26.734375,8.1523438 26.174468,8.1523713 25.679677,8.2630483 25.25,8.484375 24.833324,8.7057562 24.332022,9.08336 23.746094,9.6171875 m 2.714843,1.2109375 0.917969,-0.9375 c 1.119779,0.039088 1.959622,0.306015 2.519531,0.800781 0.572902,0.481796 0.85936,1.087264 0.859375,1.816407 -1.5e-5,0.481793 -0.117202,0.957053 -0.351562,1.425781 -0.23439,0.45575 -0.592462,0.859396 -1.074219,1.210937 -0.481784,0.338562 -1.223971,0.651062 -2.226562,0.9375 l -0.214844,-0.605468 c 1.067696,-0.351542 1.757799,-0.722636 2.070312,-1.113282 0.312486,-0.403624 0.468736,-0.846332 0.46875,-1.328125 -1.4e-5,-1.223934 -0.89194,-1.861954 -2.675781,-1.914062 l -0.292969,-0.292969"
           style="font-size:40px"
           id="path3827" />
      </g>
      <g
         style="font-size:18px;font-style:normal;font-variant:normal;font-weight:normal;font-stretch:normal;line-height:125%;letter-spacing:0px;word-spacing:0px;fill:#333fa2;fill-opacity:1;stroke:none;font-family:Palatino Linotype;-inkscape-font-specification:Palatino Linotype"
         id="text3008-6">
        <path
           d="m 39.527344,33.248047 -0.273438,0.859375 c -2.018252,0.9375 -3.502625,1.406249 -4.453125,1.40625 -0.494811,-10e-7 -0.917988,-0.07813 -1.269531,-0.234375 C 33.19269,35.123047 32.932273,34.934245 32.75,34.712891 32.580711,34.478516 32.443993,34.198569 32.339844,33.873047 32.235659,33.547528 32.08592,32.824872 31.890625,31.705078 l -0.644531,-3.632812 c -1.927098,2.708337 -3.730482,4.635419 -5.410157,5.78125 -1.666676,1.132812 -3.385424,1.699218 -5.15625,1.699218 -1.588546,0 -2.77344,-0.390625 -3.554687,-1.171875 -0.768231,-0.794269 -1.152345,-2.089841 -1.152344,-3.886718 -1e-6,-2.695306 0.638019,-5.227855 1.914063,-7.597657 1.276037,-2.369777 2.740879,-4.062483 4.394531,-5.078125 1.666657,-1.015606 3.470041,-1.523418 5.410156,-1.523437 1.614569,1.9e-5 2.845036,0.397154 3.691406,1.191406 0.859358,0.794288 1.497378,2.291682 1.914063,4.492188 0.716126,-1.562486 1.367167,-3.235661 1.953125,-5.019532 l 0.527344,-0.273437 1.40625,1.074219 0.117187,0.566406 c -1.445333,2.617201 -2.610697,4.537772 -3.496094,5.761719 0.234356,1.497405 0.527325,3.053393 0.878907,4.667968 0.351542,1.614588 0.631489,2.688806 0.839843,3.222657 0.208313,0.520835 0.47524,0.91146 0.800782,1.171875 0.325499,0.247397 0.761696,0.371095 1.308593,0.371093 0.468727,2e-6 1.002581,-0.130206 1.601563,-0.390625 l 0.292969,0.117188 M 30.914062,26.314453 C 30.289047,23.150403 29.651027,20.897801 29,19.556641 c -0.651055,-1.35415 -1.67319,-2.031233 -3.066406,-2.03125 -1.88803,1.7e-5 -3.450529,1.126318 -4.6875,3.378906 -1.236985,2.252616 -1.855474,4.876311 -1.855469,7.871094 -5e-6,1.796879 0.208328,3.111982 0.625,3.945312 0.429682,0.833335 1.087233,1.250001 1.972656,1.25 1.471346,10e-7 3.027334,-0.781248 4.667969,-2.34375 1.640611,-1.575516 3.059881,-3.346347 4.257812,-5.3125 m -4.160156,17.910156 0.703125,-8.007812 0.585938,0 0.703125,8.007812 -0.371094,0.410157 -1.25,0 -0.371094,-0.410157 M 23.140625,8.8925781 22.671875,8.3066406 c 1.028637,-1.0546597 1.861969,-1.7122111 2.5,-1.9726562 0.63801,-0.2603877 1.236967,-0.3905959 1.796875,-0.390625 0.35155,2.91e-5 0.67707,0.032581 0.976562,0.097656 0.299466,0.065133 0.781236,0.2278934 1.445313,0.4882813 1.041651,0.3906531 1.81639,0.5859654 2.324219,0.5859375 0.351545,2.79e-5 0.683576,-0.078097 0.996093,-0.234375 0.325503,-0.1692425 0.768211,-0.5077839 1.328125,-1.015625 l 0.371094,0.4882812 c -0.677102,0.703153 -1.315122,1.2630483 -1.914062,1.6796875 -0.585955,0.4036724 -1.223975,0.6054952 -1.914063,0.6054688 -0.364599,2.64e-5 -0.69663,-0.039036 -0.996094,-0.1171875 C 29.286444,8.4303651 28.882798,8.2676049 28.375,8.0332031 27.450508,7.6295847 26.701811,7.427762 26.128906,7.4277344 c -0.559907,2.76e-5 -1.054698,0.1107045 -1.484375,0.3320312 -0.416676,0.2213812 -0.917978,0.598985 -1.503906,1.1328125 m 2.714844,1.2109379 0.917968,-0.9375004 c 1.119779,0.039088 1.959622,0.3060152 2.519532,0.8007813 0.572901,0.4817951 0.859359,1.0872631 0.859375,1.8164061 -1.6e-5,0.481794 -0.117203,0.957054 -0.351563,1.425781 -0.23439,0.455751 -0.592462,0.859396 -1.074219,1.210938 -0.481784,0.338562 -1.223971,0.651061 -2.226562,0.9375 l -0.214844,-0.605469 c 1.067696,-0.351542 1.757799,-0.722635 2.070313,-1.113281 0.312486,-0.403624 0.468736,-0.846332 0.46875,-1.328125 -1.4e-5,-1.223935 -0.891941,-1.861955 -2.675782,-1.914063 l -0.292968,-0.292968"
           style="font-size:40px;fill:#333fa2"
           id="path3830" />
      </g>
    </g>
  </g>
</svg>
